{"success":true,"data":{"equipmentId":1,"history":[{"id":126,"equipmentId":1,"previousStatus":"Active","newStatus":"Active","timestamp":"2025-08-13T04:43:39.627Z","changedBy":"Operator"},{"id":125,"equipmentId":1,"previousStatus":"Idle","newStatus":"Active","timestamp":"2025-08-13T04:43:39.434Z","changedBy":"Operator"},{"id":123,"equipmentId":1,"previousStatus":"Active","newStatus":"Idle","timestamp":"2025-08-13T04:43:33.793Z","changedBy":"Operator"},{"id":121,"equipmentId":1,"previousStatus":"Idle","newStatus":"Active","timestamp":"2025-08-13T04:39:21.740Z","changedBy":"Operator"},{"id":119,"equipmentId":1,"previousStatus":"Active","newStatus":"Idle","timestamp":"2025-08-13T04:39:15.720Z","changedBy":"Operator"},{"id":117,"equipmentId":1,"previousStatus":"Idle","newStatus":"Active","timestamp":"2025-08-13T04:39:07.359Z","changedBy":"Operator"},{"id":115,"equipmentId":1,"previousStatus":"Active","newStatus":"Idle","timestamp":"2025-08-13T04:39:01.448Z","changedBy":"Operator"},{"id":113,"equipmentId":1,"previousStatus":"Idle","newStatus":"Active","timestamp":"2025-08-13T04:35:51.350Z","changedBy":"Operator"},{"id":111,"equipmentId":1,"previousStatus":"Active","newStatus":"Idle","timestamp":"2025-08-13T04:35:45.166Z","changedBy":"Operator"},{"id":109,"equipmentId":1,"previousStatus":"Idle","newStatus":"Active","timestamp":"2025-08-13T04:35:30.883Z","changedBy":"Operator"}],"total":39,"limit":10,"offset":0,"hasMore":true}}