{"success":true,"data":{"equipmentId":1,"history":[{"id":85,"equipmentId":1,"previousStatus":"Idle","newStatus":"Active","timestamp":"2025-08-13T04:21:20.381Z","changedBy":"Operator"},{"id":83,"equipmentId":1,"previousStatus":"Active","newStatus":"Idle","timestamp":"2025-08-13T04:21:14.694Z","changedBy":"Operator"},{"id":81,"equipmentId":1,"previousStatus":"Idle","newStatus":"Active","timestamp":"2025-08-13T04:20:39.808Z","changedBy":"Operator"},{"id":79,"equipmentId":1,"previousStatus":"Active","newStatus":"Idle","timestamp":"2025-08-13T04:19:15.558Z","changedBy":"Operator"},{"id":77,"equipmentId":1,"previousStatus":"Idle","newStatus":"Active","timestamp":"2025-08-13T04:17:48.992Z","changedBy":"Operator"},{"id":75,"equipmentId":1,"previousStatus":"Active","newStatus":"Idle","timestamp":"2025-08-13T04:17:43.371Z","changedBy":"Operator"},{"id":73,"equipmentId":1,"previousStatus":"Idle","newStatus":"Active","timestamp":"2025-08-13T04:16:19.897Z","changedBy":"Operator"},{"id":71,"equipmentId":1,"previousStatus":"Active","newStatus":"Idle","timestamp":"2025-08-13T04:16:14.367Z","changedBy":"Operator"},{"id":58,"equipmentId":1,"previousStatus":"Idle","newStatus":"Active","timestamp":"2025-08-13T04:14:05.846Z","changedBy":"Operator"},{"id":50,"equipmentId":1,"previousStatus":"Active","newStatus":"Idle","timestamp":"2025-08-13T04:13:59.665Z","changedBy":"Operator"}],"total":18,"limit":10,"offset":0,"hasMore":true}}