{"success":true,"data":{"equipmentId":1,"history":[{"id":139,"equipmentId":1,"previousStatus":"Idle","newStatus":"Active","timestamp":"2025-08-13T04:44:58.648Z","changedBy":"Operator"},{"id":137,"equipmentId":1,"previousStatus":"Active","newStatus":"Idle","timestamp":"2025-08-13T04:44:53.008Z","changedBy":"Operator"},{"id":135,"equipmentId":1,"previousStatus":"Idle","newStatus":"Active","timestamp":"2025-08-13T04:44:21.595Z","changedBy":"Operator"},{"id":133,"equipmentId":1,"previousStatus":"Active","newStatus":"Idle","timestamp":"2025-08-13T04:44:15.816Z","changedBy":"Operator"},{"id":131,"equipmentId":1,"previousStatus":"Idle","newStatus":"Active","timestamp":"2025-08-13T04:44:07.412Z","changedBy":"Operator"},{"id":129,"equipmentId":1,"previousStatus":"Active","newStatus":"Idle","timestamp":"2025-08-13T04:44:01.933Z","changedBy":"Operator"},{"id":126,"equipmentId":1,"previousStatus":"Active","newStatus":"Active","timestamp":"2025-08-13T04:43:39.627Z","changedBy":"Operator"},{"id":125,"equipmentId":1,"previousStatus":"Idle","newStatus":"Active","timestamp":"2025-08-13T04:43:39.434Z","changedBy":"Operator"},{"id":123,"equipmentId":1,"previousStatus":"Active","newStatus":"Idle","timestamp":"2025-08-13T04:43:33.793Z","changedBy":"Operator"},{"id":121,"equipmentId":1,"previousStatus":"Idle","newStatus":"Active","timestamp":"2025-08-13T04:39:21.740Z","changedBy":"Operator"}],"total":45,"limit":10,"offset":0,"hasMore":true}}