{"success":true,"data":{"equipmentId":2,"history":[{"id":128,"equipmentId":2,"previousStatus":"Active","newStatus":"Active","timestamp":"2025-08-13T04:43:40.247Z","changedBy":"Operator"},{"id":127,"equipmentId":2,"previousStatus":"Idle","newStatus":"Active","timestamp":"2025-08-13T04:43:40.089Z","changedBy":"Operator"},{"id":124,"equipmentId":2,"previousStatus":"Active","newStatus":"Idle","timestamp":"2025-08-13T04:43:34.434Z","changedBy":"Operator"},{"id":122,"equipmentId":2,"previousStatus":"Idle","newStatus":"Active","timestamp":"2025-08-13T04:39:22.492Z","changedBy":"Operator"},{"id":120,"equipmentId":2,"previousStatus":"Active","newStatus":"Idle","timestamp":"2025-08-13T04:39:16.414Z","changedBy":"Operator"},{"id":118,"equipmentId":2,"previousStatus":"Idle","newStatus":"Active","timestamp":"2025-08-13T04:39:08.054Z","changedBy":"Operator"},{"id":116,"equipmentId":2,"previousStatus":"Active","newStatus":"Idle","timestamp":"2025-08-13T04:39:02.154Z","changedBy":"Operator"},{"id":114,"equipmentId":2,"previousStatus":"Idle","newStatus":"Active","timestamp":"2025-08-13T04:35:52.063Z","changedBy":"Operator"},{"id":112,"equipmentId":2,"previousStatus":"Active","newStatus":"Idle","timestamp":"2025-08-13T04:35:45.901Z","changedBy":"Operator"},{"id":110,"equipmentId":2,"previousStatus":"Idle","newStatus":"Active","timestamp":"2025-08-13T04:35:31.590Z","changedBy":"Operator"}],"total":39,"limit":10,"offset":0,"hasMore":true}}