{"success":true,"data":{"equipmentId":2,"history":[{"id":140,"equipmentId":2,"previousStatus":"Idle","newStatus":"Active","timestamp":"2025-08-13T04:44:59.350Z","changedBy":"Operator"},{"id":138,"equipmentId":2,"previousStatus":"Active","newStatus":"Idle","timestamp":"2025-08-13T04:44:53.631Z","changedBy":"Operator"},{"id":136,"equipmentId":2,"previousStatus":"Idle","newStatus":"Active","timestamp":"2025-08-13T04:44:22.214Z","changedBy":"Operator"},{"id":134,"equipmentId":2,"previousStatus":"Active","newStatus":"Idle","timestamp":"2025-08-13T04:44:16.452Z","changedBy":"Operator"},{"id":132,"equipmentId":2,"previousStatus":"Idle","newStatus":"Active","timestamp":"2025-08-13T04:44:08.073Z","changedBy":"Operator"},{"id":130,"equipmentId":2,"previousStatus":"Active","newStatus":"Idle","timestamp":"2025-08-13T04:44:02.591Z","changedBy":"Operator"},{"id":128,"equipmentId":2,"previousStatus":"Active","newStatus":"Active","timestamp":"2025-08-13T04:43:40.247Z","changedBy":"Operator"},{"id":127,"equipmentId":2,"previousStatus":"Idle","newStatus":"Active","timestamp":"2025-08-13T04:43:40.089Z","changedBy":"Operator"},{"id":124,"equipmentId":2,"previousStatus":"Active","newStatus":"Idle","timestamp":"2025-08-13T04:43:34.434Z","changedBy":"Operator"},{"id":122,"equipmentId":2,"previousStatus":"Idle","newStatus":"Active","timestamp":"2025-08-13T04:39:22.492Z","changedBy":"Operator"}],"total":45,"limit":10,"offset":0,"hasMore":true}}