{"success":true,"data":{"equipmentId":2,"history":[{"id":84,"equipmentId":2,"previousStatus":"Active","newStatus":"Idle","timestamp":"2025-08-13T04:21:15.307Z","changedBy":"Operator"},{"id":82,"equipmentId":2,"previousStatus":"Idle","newStatus":"Active","timestamp":"2025-08-13T04:20:40.425Z","changedBy":"Operator"},{"id":80,"equipmentId":2,"previousStatus":"Active","newStatus":"Idle","timestamp":"2025-08-13T04:19:16.172Z","changedBy":"Operator"},{"id":78,"equipmentId":2,"previousStatus":"Idle","newStatus":"Active","timestamp":"2025-08-13T04:17:49.593Z","changedBy":"Operator"},{"id":76,"equipmentId":2,"previousStatus":"Active","newStatus":"Idle","timestamp":"2025-08-13T04:17:43.978Z","changedBy":"Operator"},{"id":74,"equipmentId":2,"previousStatus":"Idle","newStatus":"Active","timestamp":"2025-08-13T04:16:20.496Z","changedBy":"Operator"},{"id":72,"equipmentId":2,"previousStatus":"Active","newStatus":"Idle","timestamp":"2025-08-13T04:16:14.992Z","changedBy":"Operator"},{"id":60,"equipmentId":2,"previousStatus":"Idle","newStatus":"Active","timestamp":"2025-08-13T04:14:06.473Z","changedBy":"Operator"},{"id":51,"equipmentId":2,"previousStatus":"Active","newStatus":"Idle","timestamp":"2025-08-13T04:14:00.349Z","changedBy":"Operator"},{"id":41,"equipmentId":2,"previousStatus":"Idle","newStatus":"Active","timestamp":"2025-08-13T04:10:50.379Z","changedBy":"Operator"}],"total":17,"limit":10,"offset":0,"hasMore":true}}